{
    "controlador.tda.cola.Cola": {
        "cabecera": {
            "dato": {
                "@class": "Modelo.Datos",
                "Metascore": 67,
                "imdbRating": 7.6,
                "imdbVotes": 650.596,
                "imdbID": "tt3896198",
                "Type": "movie",
                "DVD": "22 Aug 2017",
                "BoxOffice": "$389,813,101",
                "Production": "N/A",
                "Website": "N/A",
                "Response": "True"
            },
            "siguiente": {
                "dato": {
                    "@class": "Modelo.Datos",
                    "Metascore": 67,
                    "imdbRating": 7.6,
                    "imdbVotes": 650.596,
                    "imdbID": "tt3896198",
                    "Type": "movie",
                    "DVD": "22 Aug 2017",
                    "BoxOffice": "$389,813,101",
                    "Production": "N/A",
                    "Website": "N/A",
                    "Response": "True"
                }
            }
        },
        "size": 2,
        "tope": 0
    }
}